[gd_scene load_steps=7 format=3 uid="uid://boer5bhxg084c"]

[ext_resource type="Script" path="res://scripts/float_text_2d.gd" id="1_bs7vu"]
[ext_resource type="Theme" uid="uid://cbdhfsfp55ug8" path="res://base_theme.tres" id="2_8iwfr"]

[sub_resource type="Animation" id="Animation_tt170"]
length = 0.001
tracks/0/type = "bezier"
tracks/0/imported = false
tracks/0/enabled = true
tracks/0/path = NodePath("LabelContainer:scale:x")
tracks/0/interp = 1
tracks/0/loop_wrap = true
tracks/0/keys = {
"handle_modes": PackedInt32Array(0),
"points": PackedFloat32Array(1, -0.25, 0, 0.25, 0),
"times": PackedFloat32Array(0)
}
tracks/1/type = "bezier"
tracks/1/imported = false
tracks/1/enabled = true
tracks/1/path = NodePath("LabelContainer:scale:y")
tracks/1/interp = 1
tracks/1/loop_wrap = true
tracks/1/keys = {
"handle_modes": PackedInt32Array(0),
"points": PackedFloat32Array(1, -0.25, 0, 0.25, 0),
"times": PackedFloat32Array(0)
}

[sub_resource type="Animation" id="Animation_og223"]
resource_name = "hover"
tracks/0/type = "bezier"
tracks/0/imported = false
tracks/0/enabled = true
tracks/0/path = NodePath("LabelContainer:modulate:a")
tracks/0/interp = 1
tracks/0/loop_wrap = true
tracks/0/keys = {
"handle_modes": PackedInt32Array(0, 0),
"points": PackedFloat32Array(0, -0.25, 0, 0.25, 0, 1, -0.25, 0, 0.25, 0),
"times": PackedFloat32Array(0, 0.2)
}
tracks/1/type = "method"
tracks/1/imported = false
tracks/1/enabled = true
tracks/1/path = NodePath(".")
tracks/1/interp = 1
tracks/1/loop_wrap = true
tracks/1/keys = {
"times": PackedFloat32Array(),
"transitions": PackedFloat32Array(),
"values": []
}
tracks/2/type = "bezier"
tracks/2/imported = false
tracks/2/enabled = true
tracks/2/path = NodePath("LabelContainer:scale:x")
tracks/2/interp = 1
tracks/2/loop_wrap = true
tracks/2/keys = {
"handle_modes": PackedInt32Array(0, 0),
"points": PackedFloat32Array(0.5, -0.25, 0, 0.25, 0, 1, -0.25, 0, 0.25, 0),
"times": PackedFloat32Array(0, 0.4)
}
tracks/3/type = "bezier"
tracks/3/imported = false
tracks/3/enabled = true
tracks/3/path = NodePath("LabelContainer:scale:y")
tracks/3/interp = 1
tracks/3/loop_wrap = true
tracks/3/keys = {
"handle_modes": PackedInt32Array(0, 0),
"points": PackedFloat32Array(0.5, -0.25, 0, 0.25, 0, 1, -0.25, 0, 0.25, 0),
"times": PackedFloat32Array(0, 0.4)
}

[sub_resource type="Animation" id="Animation_1865m"]
tracks/0/type = "bezier"
tracks/0/imported = false
tracks/0/enabled = true
tracks/0/path = NodePath("LabelContainer:modulate:a")
tracks/0/interp = 1
tracks/0/loop_wrap = true
tracks/0/keys = {
"handle_modes": PackedInt32Array(0, 0, 0, 0),
"points": PackedFloat32Array(0, -0.25, 0, 0.25, 0, 1, -0.25, 0, 0.25, 0, 1, -0.25, 0, 0.25, 0, 0, -0.25, 0, 0.25, 0),
"times": PackedFloat32Array(0, 0.2, 0.5, 1)
}
tracks/1/type = "method"
tracks/1/imported = false
tracks/1/enabled = true
tracks/1/path = NodePath(".")
tracks/1/interp = 1
tracks/1/loop_wrap = true
tracks/1/keys = {
"times": PackedFloat32Array(1),
"transitions": PackedFloat32Array(1),
"values": [{
"args": [],
"method": &"remove"
}]
}
tracks/2/type = "bezier"
tracks/2/imported = false
tracks/2/enabled = true
tracks/2/path = NodePath("LabelContainer:scale:x")
tracks/2/interp = 1
tracks/2/loop_wrap = true
tracks/2/keys = {
"handle_modes": PackedInt32Array(0, 0, 0, 0),
"points": PackedFloat32Array(0.5, -0.25, 0, 0.25, 0, 1, -0.25, 0, 0.25, 0, 1, -0.25, 0, 0.25, 0, 0.5, -0.25, 0, 0.25, 0),
"times": PackedFloat32Array(0, 0.4, 0.5, 1)
}
tracks/3/type = "bezier"
tracks/3/imported = false
tracks/3/enabled = true
tracks/3/path = NodePath("LabelContainer:scale:y")
tracks/3/interp = 1
tracks/3/loop_wrap = true
tracks/3/keys = {
"handle_modes": PackedInt32Array(0, 0, 0, 0),
"points": PackedFloat32Array(0.5, -0.25, 0, 0.25, 0, 1, -0.25, 0, 0.25, 0, 1, -0.25, 0, 0.25, 0, 0.5, -0.25, 0, 0.25, 0),
"times": PackedFloat32Array(0, 0.4, 0.5, 1)
}

[sub_resource type="AnimationLibrary" id="AnimationLibrary_rnf1w"]
_data = {
"RESET": SubResource("Animation_tt170"),
"hover": SubResource("Animation_og223"),
"rise_and_fade": SubResource("Animation_1865m")
}

[node name="FloatText2D" type="Node2D"]
script = ExtResource("1_bs7vu")

[node name="AnimationPlayer" type="AnimationPlayer" parent="."]
libraries = {
"": SubResource("AnimationLibrary_rnf1w")
}
autoplay = "hover"

[node name="LabelContainer" type="Node2D" parent="."]
z_index = 50

[node name="Label" type="Label" parent="LabelContainer"]
offset_left = -49.0
offset_top = 1.0
offset_right = 49.0
offset_bottom = 24.0
theme = ExtResource("2_8iwfr")
text = "You Win!"
